<?xml version="1.0" encoding="UTF-8"?>
<testng-results skipped="0" failed="0" total="2" passed="2">
  <reporter-output>
  </reporter-output>
  <suite name="Surefire suite" duration-ms="72991" started-at="2014-04-07T11:06:09Z" finished-at="2014-04-07T11:07:22Z">
    <groups>
    </groups>
    <test name="Surefire test" duration-ms="72991" started-at="2014-04-07T11:06:09Z" finished-at="2014-04-07T11:07:22Z">
      <class name="CustLogin_Test">
        <test-method status="PASS" signature="setup()[pri:0, instance:CustLogin_Test@f9de08]" name="setup" is-config="true" duration-ms="16482" started-at="2014-04-07T19:06:54Z" finished-at="2014-04-07T19:07:10Z">
          <reporter-output>
          </reporter-output>
        </test-method> <!-- setup -->
        <test-method status="PASS" signature="custTest()[pri:0, instance:CustLogin_Test@f9de08]" name="custTest" duration-ms="11527" started-at="2014-04-07T19:07:10Z" finished-at="2014-04-07T19:07:22Z">
          <reporter-output>
          </reporter-output>
        </test-method> <!-- custTest -->
        <test-method status="PASS" signature="tearDown()[pri:0, instance:CustLogin_Test@f9de08]" name="tearDown" is-config="true" duration-ms="96" started-at="2014-04-07T19:07:22Z" finished-at="2014-04-07T19:07:22Z">
          <reporter-output>
          </reporter-output>
        </test-method> <!-- tearDown -->
      </class> <!-- CustLogin_Test -->
      <class name="AdminLogin_Test">
        <test-method status="PASS" signature="setup()[pri:0, instance:AdminLogin_Test@479446]" name="setup" is-config="true" duration-ms="27254" started-at="2014-04-07T19:06:09Z" finished-at="2014-04-07T19:06:36Z">
          <reporter-output>
          </reporter-output>
        </test-method> <!-- setup -->
        <test-method status="PASS" signature="adminTest()[pri:0, instance:AdminLogin_Test@479446]" name="adminTest" duration-ms="14825" started-at="2014-04-07T19:06:36Z" finished-at="2014-04-07T19:06:51Z">
          <reporter-output>
          </reporter-output>
        </test-method> <!-- adminTest -->
        <test-method status="PASS" signature="tearDown()[pri:0, instance:AdminLogin_Test@479446]" name="tearDown" is-config="true" duration-ms="2784" started-at="2014-04-07T19:06:51Z" finished-at="2014-04-07T19:06:54Z">
          <reporter-output>
          </reporter-output>
        </test-method> <!-- tearDown -->
      </class> <!-- AdminLogin_Test -->
    </test> <!-- Surefire test -->
  </suite> <!-- Surefire suite -->
</testng-results>
